,0
rank,12.0
id,330744.0
work_id,2297814.0
books_count,25.0
isbn13,9780312349490.0
original_publication_year,2012.0
average_rating,4.16
ratings_count,17813.0
work_ratings_count,33232.0
work_text_reviews_count,272.0
ratings_1,110.0
ratings_2,658.0
ratings_3,4620.0
ratings_4,7936.0
ratings_5,7086.0
